…
Create 5000 datasets for hypothesis test mu = 0 iteration

``` r
output = vector("list", length = 5000)

for (i in 1:5000){
  output[[i]] = hypothesis(mu = 0)
} 

bind_rows(output)
```

    ## # A tibble: 5,000 x 2
    ##    estimate p.value
    ##       <dbl>   <dbl>
    ##  1  -0.122   0.910 
    ##  2  -0.448   0.594 
    ##  3   0.191   0.824 
    ##  4   1.71    0.0857
    ##  5   0.293   0.767 
    ##  6   0.624   0.504 
    ##  7  -0.160   0.881 
    ##  8   0.585   0.508 
    ##  9  -1.66    0.0699
    ## 10  -0.0835  0.915 
    ## # … with 4,990 more rows
…
